{
  "origin": "https://c.drive.google.com/",
  "has_same_origin_collector": true,
  "success_sample_rate": 0.05,
  "collectors": [
    "https://beacons.gvt2.com/domainreliability/upload",
    "https://beacons2.gvt2.com/domainreliability/upload",
    "https://clients2.google.com/domainreliability/upload",
    "https://beacons3.gvt2.com/domainreliability/upload",
    "https://beacons4.gvt2.com/domainreliability/upload"
  ],
  "failure_sample_rate": 1.0,
  "include_subdomains": true,
  "path_prefixes": [
    "/videoplayback",
    "/videochunk",
    "/chunk_present",
    "/cm2_state",
    "/videolookup",
    "/videogoodput",
    "/MotifFiles",
    "/StudioFiles",
    "/packdata",
    "/edgedl",
    "/market",
    "/packages",
    "/crx",
    "/initplayback",
    "/initsegment",
    ""
  ]
}
